{
	"folders": {},
	"connections": {
		"mariaDB-16f86fa0599-4924d1f9f5bc3902": {
			"provider": "mysql",
			"driver": "mariaDB",
			"name": "Lleialtat - album-familiar",
			"save-password": true,
			"read-only": false,
			"configuration": {
				"host": "localhost",
				"port": "3307",
				"database": "album_familiar",
				"url": "jdbc:mysql://localhost:3307/album_familiar",
				"home": "/usr",
				"type": "dev",
				"handlers": {
					"ssh_tunnel": {
						"type": "TUNNEL",
						"enabled": true,
						"save-password": true,
						"properties": {
							"host": "album.lleialtat.cat",
							"authType": "PUBLIC_KEY",
							"port": 22024.0,
							"keyPath": "/home/aritz/.ssh/id_rsa",
							"implementation": "jsch"
						}
					}
				}
			},
			"custom-properties": {
				"database.meta.separate.connection": "false"
			}
		}
	},
	"connection-types": {
		"dev": {
			"name": "Development",
			"color": "255,255,255",
			"description": "Regular development database",
			"auto-commit": true,
			"confirm-execute": false,
			"confirm-data-change": false
		}
	}
}